%YAML 1.1
%TAG !u! tag:unity3d.com,2011:
--- !u!1045 &1
EditorBuildSettings:
  m_ObjectHideFlags: 0
  serializedVersion: 2
  m_Scenes:
  - enabled: 1
    path: Assets/Scenes/main_menu.unity
    guid: 329ef99382df3fa4da44fc266348569a
  - enabled: 1
    path: Assets/Scenes/game.unity
    guid: 2cda990e2423bbf4892e6590ba056729
  - enabled: 1
    path: Assets/Scenes/death.unity
    guid: 2d9085651d9002848a56eb57c7e199b1
  - enabled: 1
    path: Assets/Scenes/winner.unity
    guid: bbe07f652514462478afdeee90524fe9
  m_configObjects: {}
